# 
# Wavefront material file
# Converted by the DEEP Exploration  SAP Visual Enterprise Author 7.1 7.1.0.185
# Right Hemisphere, LTD
# http://www.righthemisphere.com/
# 

newmtl Metal_Brass
Ka 0.0196078 0.0117647 0
Kd 0.898039 0.537255 0.196078
Ks 0.898039 0.537255 0.196078
illum 2
Ns 362.039
map_Kd 
map_bump 
bump 
map_opacity 
map_d 
refl parasolid_pumpenstand_gefaerbt_v20.png
map_kS 
map_kA 
map_Ns 

newmtl Metal_Brushed_
Ka 0 0 0
Kd 0.658824 0.658824 0.658824
Ks 0.658824 0.658824 0.658824
illum 2
Ns 64
map_Kd 
map_bump parasolid_pumpenstand_gefaerbt_v21.png
bump parasolid_pumpenstand_gefaerbt_v21.png
map_opacity 
map_d 
refl parasolid_pumpenstand_gefaerbt_v22.png
map_kS 
map_kA 
map_Ns 

newmtl Material__1
Ka 0.117647 0.117647 0.117647
Kd 0.784314 0 0
Ks 0.752941 0.752941 0.752941
illum 2
Ns 8
map_Kd 
map_bump 
bump 
map_opacity 
map_d 
refl 
map_kS 
map_kA 
map_Ns 

newmtl Material__4
Ka 0.117647 0.117647 0.117647
Kd 0.0470588 0.0470588 0.0470588
Ks 0.752941 0.752941 0.752941
illum 2
Ns 8
map_Kd 
map_bump 
bump 
map_opacity 
map_d 
refl 
map_kS 
map_kA 
map_Ns 

newmtl Metal_Gold_Light
Ka 0.0627451 0.027451 0
Kd 0.960784 0.85098 0.423529
Ks 0.960784 0.85098 0.423529
illum 2
Ns 8
map_Kd 
map_bump 
bump 
map_opacity 
map_d 
refl parasolid_pumpenstand_gefaerbt_v23.png
map_kS 
map_kA 
map_Ns 

newmtl Plastic_Rough_Grey
Ka 0 0 0
Kd 0.321569 0.321569 0.321569
Ks 0.980392 0.968628 0.968628
illum 2
Ns 64
map_Kd 
map_bump parasolid_pumpenstand_gefaerbt_v24.png
bump parasolid_pumpenstand_gefaerbt_v24.png
map_opacity 
map_d 
refl parasolid_pumpenstand_gefaerbt_v25.png
map_kS 
map_kA 
map_Ns 

newmtl Plastic_Beige
Ka 0.529412 0.529412 0.529412
Kd 0.952941 0.937255 0.819608
Ks 0.368627 0.368627 0.368627
illum 2
Ns 5.65685
map_Kd 
map_bump 
bump 
map_opacity 
map_d 
refl parasolid_pumpenstand_gefaerbt_v26.png
map_kS 
map_kA 
map_Ns 

newmtl Glass_Perspex
Ka 0.00392157 0.00392157 0.00392157
Kd 0.611765 0.611765 0.611765
Ks 1 1 1
illum 2
Ns 1448.15
map_Kd 
map_bump 
bump 
map_opacity 
map_d 
refl parasolid_pumpenstand_gefaerbt_v27.png
map_kS 
map_kA 
map_Ns 

newmtl Wood_Cherry
Ka 0 0 0
Kd 1 1 1
Ks 0.980392 0.956863 0.929412
illum 2
Ns 8.57419
map_Kd parasolid_pumpenstand_gefaerbt_v28.png
map_bump 
bump 
map_opacity 
map_d 
refl parasolid_pumpenstand_gefaerbt_v29.png
map_kS 
map_kA 
map_Ns 
